…
# What is the average daily activity pattern?

Make a time series plot of the 5-minute interval (x-axis) and the average number of steps taken,averaged across all days (y-axis)

```r
        int_steps <- group_by(complete, interval)
        meansteps <- summarize(int_steps, avg_steps = mean(steps))
        meansteps
```

```
## # A tibble: 288 x 2
##    interval avg_steps
##       <int>     <dbl>
##  1        0 1.7169811
##  2        5 0.3396226
##  3       10 0.1320755
##  4       15 0.1509434
##  5       20 0.0754717
##  6       25 2.0943396
##  7       30 0.5283019
##  8       35 0.8679245
##  9       40 0.0000000
## 10       45 1.4716981
## # ... with 278 more rows
```
…
